cz\vse\kolv\logika\SeznamPrikazu.class
cz\vse\kolv\logika\Mistnost.class
cz\vse\kolv\logika\PrikazSeber.class
cz\vse\kolv\logika\PrikazPoloz.class
cz\vse\kolv\logika\PrikazOdemkni.class
cz\vse\kolv\logika\PrikazSnez.class
cz\vse\kolv\logika\HerniPlan.class
cz\vse\kolv\logika\PrikazOtevri.class
cz\vse\kolv\logika\IHra.class
cz\vse\kolv\uiText\TextoveRozhrani.class
cz\vse\kolv\logika\Vec.class
cz\vse\kolv\logika\Hra.class
cz\vse\kolv\logika\PrikazJdi.class
cz\vse\kolv\logika\IPrikaz.class
cz\vse\kolv\main\Spusteni.class
cz\vse\kolv\logika\PrikazRozrizni.class
cz\vse\kolv\logika\PrikazKonec.class
cz\vse\kolv\logika\PrikazNapoveda.class
cz\vse\kolv\logika\Batoh.class
cz\vse\kolv\logika\PrikazProjdi.class
