C:\Users\vitek\Desktop\adventura_final 2\adventura_final 2\src\main\java\cz\vse\kolv\logika\IHra.java
C:\Users\vitek\Desktop\adventura_final 2\adventura_final 2\src\main\java\cz\vse\kolv\logika\PrikazOtevri.java
C:\Users\vitek\Desktop\adventura_final 2\adventura_final 2\src\main\java\cz\vse\kolv\logika\PrikazSnez.java
C:\Users\vitek\Desktop\adventura_final 2\adventura_final 2\src\main\java\cz\vse\kolv\main\Spusteni.java
C:\Users\vitek\Desktop\adventura_final 2\adventura_final 2\src\main\java\cz\vse\kolv\logika\PrikazJdi.java
C:\Users\vitek\Desktop\adventura_final 2\adventura_final 2\src\main\java\cz\vse\kolv\logika\Mistnost.java
C:\Users\vitek\Desktop\adventura_final 2\adventura_final 2\src\main\java\cz\vse\kolv\logika\IPrikaz.java
C:\Users\vitek\Desktop\adventura_final 2\adventura_final 2\src\main\java\cz\vse\kolv\logika\PrikazPoloz.java
C:\Users\vitek\Desktop\adventura_final 2\adventura_final 2\src\main\java\cz\vse\kolv\logika\PrikazSeber.java
C:\Users\vitek\Desktop\adventura_final 2\adventura_final 2\src\main\java\cz\vse\kolv\uiText\TextoveRozhrani.java
C:\Users\vitek\Desktop\adventura_final 2\adventura_final 2\src\main\java\cz\vse\kolv\logika\PrikazRozrizni.java
C:\Users\vitek\Desktop\adventura_final 2\adventura_final 2\src\main\java\cz\vse\kolv\logika\Vec.java
C:\Users\vitek\Desktop\adventura_final 2\adventura_final 2\src\main\java\cz\vse\kolv\logika\PrikazProjdi.java
C:\Users\vitek\Desktop\adventura_final 2\adventura_final 2\src\main\java\cz\vse\kolv\logika\PrikazNapoveda.java
C:\Users\vitek\Desktop\adventura_final 2\adventura_final 2\src\main\java\cz\vse\kolv\logika\PrikazOdemkni.java
C:\Users\vitek\Desktop\adventura_final 2\adventura_final 2\src\main\java\cz\vse\kolv\logika\PrikazKonec.java
C:\Users\vitek\Desktop\adventura_final 2\adventura_final 2\src\main\java\cz\vse\kolv\logika\Hra.java
C:\Users\vitek\Desktop\adventura_final 2\adventura_final 2\src\main\java\cz\vse\kolv\logika\Batoh.java
C:\Users\vitek\Desktop\adventura_final 2\adventura_final 2\src\main\java\cz\vse\kolv\logika\HerniPlan.java
C:\Users\vitek\Desktop\adventura_final 2\adventura_final 2\src\main\java\cz\vse\kolv\logika\SeznamPrikazu.java
