-------------------------------------------------------------------------------
Test set: cz.vse.kolv.HraTest
-------------------------------------------------------------------------------
Tests run: 1, Failures: 0, Errors: 0, Skipped: 0, Time elapsed: 0.063 sec
